{
  "count": 39,
  "next": "https://pokeapi.co/api/v2/version?offset=20&limit=19",
  "previous": null,
  "results": [
    {
      "name": "red",
      "url": "https://pokeapi.co/api/v2/version/1/"
    },
    {
      "name": "blue",
      "url": "https://pokeapi.co/api/v2/version/2/"
    },
    {
      "name": "yellow",
      "url": "https://pokeapi.co/api/v2/version/3/"
    },
    {
      "name": "gold",
      "url": "https://pokeapi.co/api/v2/version/4/"
    },
    {
      "name": "silver",
      "url": "https://pokeapi.co/api/v2/version/5/"
    },
    {
      "name": "crystal",
      "url": "https://pokeapi.co/api/v2/version/6/"
    },
    {
      "name": "ruby",
      "url": "https://pokeapi.co/api/v2/version/7/"
    },
    {
      "name": "sapphire",
      "url": "https://pokeapi.co/api/v2/version/8/"
    },
    {
      "name": "emerald",
      "url": "https://pokeapi.co/api/v2/version/9/"
    },
    {
      "name": "fire-red",
      "url": "https://pokeapi.co/api/v2/version/10/"
    },
    {
      "name": "leaf-green",
      "url": "https://pokeapi.co/api/v2/version/11/"
    },
    {
      "name": "diamond",
      "url": "https://pokeapi.co/api/v2/version/12/"
    },
    {
      "name": "pearl",
      "url": "https://pokeapi.co/api/v2/version/13/"
    },
    {
      "name": "platinum",
      "url": "https://pokeapi.co/api/v2/version/14/"
    },
    {
      "name": "heart-gold",
      "url": "https://pokeapi.co/api/v2/version/15/"
    },
    {
      "name": "soul-silver",
      "url": "https://pokeapi.co/api/v2/version/16/"
    },
    {
      "name": "black",
      "url": "https://pokeapi.co/api/v2/version/17/"
    },
    {
      "name": "white",
      "url": "https://pokeapi.co/api/v2/version/18/"
    },
    {
      "name": "colosseum",
      "url": "https://pokeapi.co/api/v2/version/19/"
    },
    {
      "name": "xd",
      "url": "https://pokeapi.co/api/v2/version/20/"
    }
  ]
}
